{
   "data":[
      {
         "Brand":[
            {
               "BrandName":"Lloyds Bank",
               "Branch":[
                  {
                     "Identification":"77720400",
                     "SequenceNumber":"00",
                     "Name":"BOURNE",
                     "Type":"Physical",
                     "CustomerSegment":[
                        "Personal",
                        "Business"
                     ],
                     "Accessibility":[
                        "WheelchairAccess"
                     ],
                     "OtherServiceAndFacility":[
                        {
                           "Code":"ATMB",
                           "Name":"ATMAtBranch"
                        },
                        {
                           "Code":"SCTY",
                           "Name":"SafeCustody"
                        }
                     ],
                     "Availability":{
                        "StandardAvailability":{
                           "Day":[
                              {
                                 "Name":"Monday",
                                 "OpeningHours":[
                                    {
                                       "OpeningTime":"09:00:00+0000",
                                       "ClosingTime":"16:00:00+0000"
                                    }
                                 ]
                              },
                              {
                                 "Name":"Tuesday",
                                 "OpeningHours":[
                                    {
                                       "OpeningTime":"09:00:00+0000",
                                       "ClosingTime":"16:00:00+0000"
                                    }
                                 ]
                              },
                              {
                                 "Name":"Wednesday",
                                 "OpeningHours":[
                                    {
                                       "OpeningTime":"09:30:00+0000",
                                       "ClosingTime":"16:00:00+0000"
                                    }
                                 ]
                              },
                              {
                                 "Name":"Thursday",
                                 "OpeningHours":[
                                    {
                                       "OpeningTime":"09:00:00+0000",
                                       "ClosingTime":"16:00:00+0000"
                                    }
                                 ]
                              },
                              {
                                 "Name":"Friday",
                                 "OpeningHours":[
                                    {
                                       "OpeningTime":"09:00:00+0000",
                                       "ClosingTime":"16:00:00+0000"
                                    }
                                 ]
                              },
                              {
                                 "Name":"Saturday",
                                 "OpeningHours":[
                                    {
                                       "OpeningTime":"09:00:00+0000",
                                       "ClosingTime":"13:00:00+0000"
                                    }
                                 ]
                              }
                           ]
                        }
                     },
                     "ContactInfo":[
                        {
                           "ContactType":"Phone",
                           "ContactContent":"+44-3453000000"
                        },
                        {
                           "ContactType":"Fax",
                           "ContactContent":"+44-1245704705"
                        }
                     ],
                     "PostalAddress":{
                        "AddressLine":[
                           "LLOYDS BRANCH 8 NORTH STREET"
                        ],
                        "TownName":"BOURNE",
                        "CountrySubDivision":[
                           "LINCOLNSHIRE"
                        ],
                        "Country":"GB",
                        "PostCode":"PE10 9ED",
                        "GeoLocation":{
                           "GeographicCoordinates":{
                              "Latitude":"52.768482",
                              "Longitude":"-0.37696"
                           }
                        }
                     }
                  }
               ]
            }
         ]
      }
   ]
}